{
	"extends": [
		"tslint:latest",
		"tslint-config-airbnb",
		"tslint-config-prettier"
	],
	"rulesDirectory": "",
	"rules": {
		"no-boolean-literal-compare": false,
		"no-console": [true, "warning"],
		"import-name": false,
		"object-literal-sort-keys": [true, "shorthand-first"],
		"object-shorthand-properties-first": false,
		"no-implicit-dependencies": [true, "dev"]
	},
	"linterOptions": {
		"exclude": [
			"dist",
			"src/generated/**/*",
			"src/graphql/generated/**/*",
			"src/graphql/resolvers/graphqlgen.ts"
		]
	}
}
